…
Item “A510004” has the highest number of sales i.e 75047

``` r
# Create a new data frame with the count of weeks for each item which have 0 sales
zero_sales <- data %>%
  group_by(item_no) %>%
  summarize(count = sum(sold == 0)) 
zero_sales
```

    ## # A tibble: 488 × 2
    ##    item_no      count
    ##    <chr>        <int>
    ##  1 020-307         44
    ##  2 020-502         43
    ##  3 025-207         43
    ##  4 02FR182024      53
    ##  5 04002032        47
    ##  6 04120002        49
    ##  7 0822203         48
    ##  8 10055.011010    19
    ##  9 10055.011020    38
    ## 10 10055.011212    39
    ## # … with 478 more rows
…
